#,Name,Start
M1,1,3.3.11
M2,2,4.2.93
M3,3,5.1.20
M4,4,5.4.19
M5,5,6.3.39
M6,6,7.1.35
M7,7,7.4.34
M8,8,8.4.68
M9,9,10.1.78
M10,10,11.1.91
M11,11,11.4.69
M16,12,12.2.03
M12,12,12.4.82
M13,13,13.4.43
M14,14,14.2.39
M15,15,15.2.93
M17,17,15.4.69
M18,18,16.3.47
M19,19,17.1.64
M20,20,17.4.43
M21,21,18.4.25
M22,22,18.4.97
M23,23,19.3.03
M24,24,20.3.16
M25,25,22.1.46
M26,26,22.4.24
M27,27,23.4.89
M28,28,24.3.57
M29,29,25.3.49
M30,30,26.4.86
M31,31,27.3.75
M32,32,28.1.60
M33,33,28.3.98
