#,Name,Start
M1,1,3.4.10
M2,2,5.3.44
M3,3,6.3.40
M4,4,8.2.43
M5,5,9.3.85
M6,6,11.1.28
M7,7,12.3.01
M8,8,14.3.62
M9,9,15.2.17
M10,10,17.1.32
M11,11,19.1.62
M12,12,20.1.44
M13,13,21.1.22
M14,14,22.2.92
M15,15,23.1.95
M16,16,24.4.23
M17,17,25.4.22
M18,18,26.3.27
M19,19,28.1.17
M20,20,29.2.99
M21,21,30.3.87
M22,22,31.1.12
M23,23,31.4.60
M24,24,33.2.81
M25,25,34.4.57
M26,26,36.1.15
M27,27,37.2.45
M28,28,38.4.40
M29,29,40.3.74
M30,30,42.4.06
M31,31,44.1.41
M32,32,45.1.09
M33,33,46.1.22
